data
similarity
25 nodes
9 decimal places
-0.30746114 minimum data value
0.32763538 maximum data value
coord
200 dimensions
City Block Standard
0.018737473 0.11918624 -0.025944708 -0.0050793043 0.031388436 0.08881023 0.059585735 -0.066415936 -0.06525081 -0.06809401 0.004345451 -0.019158883 0.080757216 0.06713153 0.026825566 -0.06266418 -0.019540077 -0.05145124 -0.079481386 -0.06736378 0.040689837 0.059160355 0.0643214 -0.035719804 -0.075397864 0.075120464 0.016114898 -0.06340063 -0.12443271 -0.079347275 -0.024616072 -0.058470536 0.007484596 -0.05434368 -0.0460228 0.02000912 -0.112509064 0.014609512 -0.06824048 0.0066805724 0.05067279 0.029299483 0.042631276 -0.019280769 0.11409752 -0.049611297 0.070603564 -0.08133207 0.0235482 0.1457129 -0.044428453 0.015153309 0.099198066 0.065182514 -0.04410608 0.044657417 -0.02833936 0.05124859 -0.060908094 0.03616445 -0.0529906 0.16861138 -0.13215002 0.18899319 0.062327333 -0.06809178 0.10905446 0.027571993 0.0125937 0.0144193685 0.07997627 0.029375544 0.1156099 0.15361914 -0.04890839 0.18089056 0.044925053 -0.18632868 -0.08958271 0.018195102 -0.05561692 -0.09060397 -0.04169706 0.07684696 -0.120485164 0.0019847495 -0.0036526937 0.04861024 -0.01903628 -0.015770253 0.079974726 -0.0061523253 -0.0052046548 -0.035364844 -0.024093553 0.052812584 -0.053758673 0.07744013 -0.028465066 0.17247756 -0.026437456 0.01623659 0.074069604 -0.08829216 0.024153845 -0.024379943 -0.09773077 0.07018242 -0.037823234 0.061110087 -0.03126171 -0.013461756 0.031642415 -0.018555207 0.06627864 -0.042121943 0.01564248 -0.03355432 -0.03208619 0.03089154 -0.17917305 0.100859486 -0.007254451 0.03514251 -0.14199875 -0.021043483 -0.14373346 0.011400608 0.02268459 -0.024974007 0.08258542 -0.015291615 0.08370946 -0.0066283955 -0.047829386 0.038159616 -0.076898135 -0.13972902 -0.045593094 0.029563213 -0.0010810447 0.14329049 0.03406216 0.012483709 0.03014302 -0.06650117 -0.034079958 -0.027532022 0.1413808 0.09646896 0.006381798 0.06278295 -0.071924135 0.0121267075 -0.104251236 -0.010601583 0.03175941 0.12105528 -0.020214237 0.09576346 0.06508483 -0.02990065 -0.04092998 0.0017971589 -0.1800935 0.06301733 0.09384343 -0.061148558 0.020120116 -8.406549E-5 0.017023828 0.017911088 -0.052892346 -0.038913555 0.0323835 -0.016436256 0.005033149 0.017052585 0.016438715 -0.019514207 -0.06707288 -0.013895658 -0.028949456 -0.0861151 -0.120813176 -0.069394805 -0.08406127 0.070139855 -0.03042677 -0.097219475 -0.055571936 0.03838211 -0.06451774 0.13841783 -0.01154493 -0.11428599 0.080173716 -0.04054821 0.04745388 0.02481945 
-0.010484137 0.020417504 0.08147469 -0.15367734 0.061169025 -0.15464137 0.055044107 0.036589965 0.06216587 0.03541449 -0.040047552 -0.10848641 0.034549408 -0.053989865 -0.03657377 -0.0470373 0.005808466 -0.07899532 -0.10841064 -0.017922087 0.033263344 0.13113011 0.01571048 0.09144472 -0.059093263 0.007448169 0.06208597 0.13409077 -0.031233191 -0.016923638 0.074495 -0.119055875 0.11464755 0.033002783 0.008937255 -0.00904061 -0.06324464 0.12628275 -0.043281097 -0.024794433 0.15683067 0.03111221 -0.05738891 -0.046152707 -0.14114387 0.01174174 -0.07507411 -0.039501216 0.04721547 0.06767126 0.015448731 -0.029779457 -0.12069015 0.06724814 -0.180233 0.0940229 -0.03423528 0.055428267 -0.08760874 -0.012758801 0.017840145 0.089718804 0.068861164 0.07757341 7.385366E-4 0.016083645 -0.089559525 -0.064567156 -0.021187235 0.057229135 0.009684489 0.053179298 0.031384256 0.0053281873 0.09456439 -0.01109517 0.11841852 0.04809279 0.0030442565 0.02881624 -0.1055031 -0.07771474 -0.014297867 -0.1418639 -0.08744026 -0.079835825 0.0038611344 -0.069102004 0.021476364 0.04506228 -0.023819156 -0.08865335 -0.09734327 0.0349708 -0.0015940513 -0.0011639583 0.019226693 -0.1862283 0.08089165 -0.075286455 0.02865103 -0.07050069 0.072775304 -0.22317529 -0.028174147 0.04848985 -0.03173761 0.05329725 -0.013621753 -0.0015188489 -0.028421964 0.035187423 -0.07613823 0.09363352 -0.07459691 0.08869786 -0.0473184 0.068965085 -0.038153928 -0.02323794 -0.053136706 0.046440247 -0.099365525 0.08937613 0.112717405 0.12165143 0.04534194 0.08805321 0.062219046 0.04369409 0.030144304 0.0035092041 -0.010274608 -0.13790639 0.046235412 -0.1534144 0.031511314 -0.112894386 -0.041994948 -0.041437645 0.07061515 0.033932187 0.062159367 -0.011224886 -0.055719387 -0.08597843 -0.016188115 0.034472317 0.01165928 -0.03814827 -0.035871986 0.12856509 0.09445736 0.055449557 -0.007222706 0.02767244 0.0036470655 0.03887162 -0.007673471 0.02848994 -0.09317412 -0.07834744 0.064440496 -0.021831527 -0.098775715 0.012804936 -0.069738865 0.053156223 0.07778653 0.113971926 0.17870452 0.02558577 0.108624704 0.008452376 -0.018192125 0.04268165 -0.022358548 0.023969188 0.03272577 -0.0016087758 -0.018297661 -0.054107834 0.038550496 -0.019338818 0.042296637 -0.076932035 -0.02995848 -0.05775994 0.029182207 0.11284574 0.056679912 2.1718377E-4 0.047691878 -0.09101664 -0.014435404 -0.0027197178 0.056340136 -0.07856929 -0.014286614 0.039021384 
0.088704996 0.11852432 0.075642005 -0.017533809 -0.17391458 0.07834711 -0.15612431 0.053910267 0.0015293057 -0.024966924 -0.12166211 -0.005690963 -0.075837046 -0.0082097445 0.0029846495 -0.016453642 0.019531235 4.9948355E-4 -0.012787341 0.0112298895 -0.01627789 0.0039605573 -0.012382433 -0.16402565 -0.0016979489 -0.15726581 0.018904524 0.017264655 -0.008519752 0.030483784 2.6073554E-5 -0.0014989936 0.0065949727 0.018723682 -0.030467343 0.05049461 0.04433009 -0.036651473 0.049853332 -0.002579354 -0.028632864 0.010195613 -0.032851208 -0.001906449 0.026261434 -0.013191023 0.006336104 -0.008084169 0.014004067 -0.10274781 0.1771512 -0.086725205 0.16428103 0.00604105 -0.01729628 -0.06069912 -0.035449214 -0.065022856 0.10194551 0.035212614 -0.007775817 0.01857868 -0.09339448 -0.032546416 0.07043228 -0.010439247 0.06618314 7.137898E-4 -0.019322965 0.005794411 -0.0032392337 0.006220177 0.008533122 -0.008784583 0.026723035 -0.008421089 0.010996898 -0.018925205 -0.009071657 -0.01081929 -0.09937115 -0.009995436 -0.04504204 -0.011180215 0.019812055 -0.086530074 0.009016699 -0.0448622 0.013671985 -0.010481264 -0.003587455 -0.03151438 -0.02500681 0.2324154 0.011541166 0.2109514 0.020397214 0.036432393 0.01977015 -0.0041093207 0.008235691 -0.0098131895 0.011460593 -0.01706397 0.007525319 -0.006051072 -0.05160282 0.17760381 -0.096700564 0.18369624 -0.04741023 -0.01167437 0.04667478 0.010004724 -0.007966544 0.0074764555 0.018661305 1.437663E-4 -0.021247383 0.0066260067 -0.01602751 0.010944754 -0.0015978282 -0.010363381 0.0390005 0.011760101 0.070584685 0.021507777 0.017427007 0.02791105 0.0452034 0.014142228 0.0115799885 0.013827135 0.0016678714 -0.08028182 -0.10414211 -0.04491932 -0.12967798 0.0032340714 -0.0042804643 0.015027689 -0.10470934 0.050363977 -0.058726925 -0.0011005581 -0.010503282 -0.019915003 0.0013611811 -0.010862561 0.012474831 -0.0034469268 -7.686613E-4 0.0047722664 -0.018152263 0.18325369 -0.01783126 0.19827789 0.0077693975 0.0042596194 -0.025592396 -0.01741804 -0.14577076 -0.028121902 -0.14267002 -0.030912867 0.010626196 -0.022501852 -0.02518173 -2.0709018E-4 -0.013387921 0.09432473 0.012677173 0.07740628 -0.08878431 0.016770441 -0.06916474 0.020316789 -0.021232368 -0.01593526 -0.023092236 -0.20259844 0.16199045 -0.21065797 0.17932458 -0.014859726 -0.016488126 0.01667842 -0.009861666 0.08715505 -0.017433932 0.16670999 -0.03854041 0.09176939 -0.16858932 0.00746827 -0.13479327 0.095281735 7.915882E-4 0.17728348 
0.0011532936 -0.0017944019 0.0020712598 -4.5340863E-4 0.075812936 -0.07283141 0.001044189 -9.799586E-4 0.0010971186 0.0029114601 -0.0010853258 2.1734297E-4 0.0025171698 -0.07614842 -0.071119964 -0.19653682 -0.0020068267 -0.20500328 -0.0019695587 -0.0024365562 0.009545879 -7.4336596E-5 0.0018646719 0.0013492467 -0.19167495 -0.0024834163 -1.6735783E-5 -0.00703215 2.4376051E-4 -0.19629592 -3.2208674E-4 0.009978299 0.0011172515 3.551309E-4 -0.004036327 0.0048064063 -4.6393642E-4 -0.0010499497 0.004509503 0.0041952603 0.0060227853 -0.0018055062 -0.004952156 -0.0052181394 0.11589827 -0.18842773 0.18728139 0.0024378947 8.8797015E-4 -0.014710375 -0.00211788 -0.002322008 0.071674794 -0.004612117 -0.0046734056 -7.694491E-4 -4.5183202E-4 0.0021905645 0.004083381 5.1135465E-4 -0.19434136 0.0035249179 0.0051341397 0.015804933 0.0020262105 0.0025474094 -0.001269897 -3.196624E-4 -0.1919957 0.0024352528 0.0027463085 0.0038837877 0.0012870249 0.18218605 9.30122E-4 0.19094415 0.19569455 -0.0037007674 -0.0057948884 -0.07122107 -1.5393937E-4 -0.0028471355 0.0027022853 -0.0033679996 0.0047944062 -0.124277905 0.001992503 -0.003593607 -0.007357788 0.006023994 0.19002794 4.9756458E-5 -0.002128913 -7.831618E-4 6.5062795E-4 0.0040103416 0.05743212 -0.004717256 0.004632587 -0.005483677 0.0014910008 0.0012471008 0.0042481543 -0.0013709697 -0.0023140071 0.007941573 0.0010884649 0.005503949 -0.0011080316 0.0014479711 0.1950866 -0.0040131346 0.002477119 -0.002103785 -0.117549285 -0.18900871 0.0037486253 -5.0915446E-4 0.0041822433 -0.20912322 -1.6015007E-4 -0.003096471 0.0035724465 0.07526069 0.013323769 4.4430667E-4 -0.0014065228 -0.0014783159 0.006258578 1.2779234E-4 -0.0011764441 0.0023799387 0.0019989507 9.0942805E-4 0.0011422822 5.4783395E-5 -0.0071067475 7.855307E-4 -0.0014523462 -0.0025441542 0.004816814 -0.0019573767 0.0019302836 0.0040921466 0.18775015 -0.007708483 0.11866236 -0.007858985 -0.005963927 -7.849031E-4 -0.07342871 0.30610257 0.002337118 -0.0019143418 4.0949162E-4 -2.521511E-5 0.0036354715 0.07608617 0.0029959818 0.004329163 9.3324145E-4 -0.0014989257 0.0014715977 -0.0014036781 -0.19687334 0.19343308 7.7505724E-4 -0.0012079617 0.1161473 0.0012682393 -0.0017892618 8.099746E-4 -0.0023705238 -0.11605472 -0.0035219975 -0.0033409966 -9.023604E-4 0.002485939 0.0040533803 -0.001053215 -4.1780033E-4 8.532624E-4 -0.0030628948 0.0031034101 3.6696056E-4 0.0015749099 -6.176887E-5 0.07300903 -0.1164875 -0.0012326969 0.003960506 0.11997832 -0.0035121415 8.4978197E-4 0.0015954634 0.07438631 0.07637522 0.076276526 -0.001380818 -0.20835747 
0.010919366 0.18464245 0.019422077 0.116115786 -0.009740083 -0.0036546504 5.5648776E-4 0.06976615 -0.08918978 -0.008905203 0.08413423 -0.025710689 -0.004655761 -0.019824129 0.04578744 0.04080273 -0.027788555 0.05085171 -0.088799044 0.053703725 -0.007781841 -0.015049319 -0.024764149 -0.0056177108 0.0064396644 0.063691 -0.051973023 -0.033058196 -0.07416775 -0.004717033 -0.002103213 0.09571684 -0.023895416 0.03224218 -0.028103251 -0.0410014 -0.1691824 -0.0030516854 -0.09602939 0.05403058 -0.008086498 0.046933804 0.012928749 -0.0911104 0.006003676 -0.03753076 -0.17260288 -0.0039949915 -0.017400224 0.054846674 0.059714887 0.025948584 0.105023794 -3.144836E-4 -0.058840442 0.056052264 0.08841909 -0.10197883 -0.0071358425 0.03951456 0.1336322 -0.04951961 -0.1345687 0.103340395 -0.05066352 -0.09001813 -0.046796806 0.07219969 0.060199324 0.12526178 0.04531701 -7.868045E-4 -0.0327715 -0.008980637 -0.019825814 -0.03971773 -0.009405469 -0.056430522 -0.01560667 -0.06428759 0.020216586 -0.014414357 0.007593272 0.23956315 0.0025930565 -0.23307924 0.022653785 0.09131407 -0.0077159433 -0.008475829 -0.0068360073 -0.0029114608 -0.004577038 -0.09941624 0.057172045 0.07706358 0.0033539599 0.019969894 0.12849492 0.05399415 -0.14415468 0.0509946 -0.06796608 -0.093978375 -0.054032557 -0.12827544 -0.007869714 0.043897957 0.013093728 0.02000097 -0.10702168 0.002123669 0.009525046 0.033231325 -0.019959252 -0.1654458 0.050367292 -0.049407363 0.012715575 -0.08038348 -0.10129645 0.06116418 0.012994456 0.044016052 0.011749607 0.033494245 -0.12810987 0.025088124 0.07346016 0.08057369 0.08921025 0.08848519 -0.033381876 0.0150019415 -0.01992864 0.022158027 0.005998164 -0.06476704 -0.054156035 0.048986107 0.049887195 0.0042654458 -0.14923207 0.020918233 -0.033141512 0.019569607 -0.11431716 0.005630609 -0.06593361 -0.040419765 -0.02204606 9.4497646E-4 0.013492655 -0.027709568 -0.007024829 -0.025543284 0.12269781 0.031110046 0.07096671 -0.020215085 0.11560854 0.03807162 -0.010157728 0.096593924 0.014517061 0.022815296 0.07227067 0.0016695169 0.09361406 -0.040026266 -0.106431395 -0.078713164 -0.078773096 -0.064472176 0.01208874 -0.003837137 0.029466625 0.13484763 -0.007029998 -4.301378E-4 0.058264203 -0.13371702 0.12874705 0.12017103 -0.007890967 -0.061267246 -0.2399782 -0.07363822 -0.004050336 0.03410463 0.046674114 -0.059454698 0.022593308 0.0771216 0.029508416 -0.018439207 0.028244521 -0.03305222 0.0061069685 0.14292054 
0.030865371 -0.09723686 -0.030780397 0.017746916 0.036504466 0.12253542 0.007082607 0.014671126 0.0012536028 0.06658549 0.038137473 0.047707777 0.010324363 -0.038191155 -0.038961064 3.7089596E-4 -0.04516882 0.0054918593 -0.052099254 0.005918329 0.04760921 0.1002747 0.07678467 0.028990692 0.011290746 0.020499969 0.07224965 -0.0052814223 -0.05174617 -0.11249112 -0.18962324 -0.013406259 0.015322243 0.043687858 0.023463676 0.03615515 -0.013368147 -0.038819294 -5.09453E-4 0.11724697 -0.049039915 -0.03751193 -0.042918738 0.0040977597 -0.10195636 0.05281975 0.10360555 -0.016845385 -0.039922733 0.10782291 0.010032407 -0.007216554 0.006683283 -2.3399839E-4 0.027472392 -0.018645337 -0.08864229 0.039830726 0.014238425 -0.042325985 0.028899543 0.07770469 -0.0025672654 0.013565919 0.031354334 -0.07623542 0.05232858 0.0891026 0.15573214 0.16267256 0.033497978 -0.10487826 -0.007484541 0.027493669 -0.12857552 0.06825966 0.06803417 -0.02508314 0.0151758995 -0.01498488 -0.018177092 -0.066723734 -0.19977233 -5.769844E-4 0.030960659 0.060611524 0.04300958 0.057520173 -0.055977292 -0.0813105 -0.026586669 -0.11528231 -0.15574528 -0.014320584 0.08082125 -0.022676915 0.25428107 -0.052930873 0.111604445 0.010071203 0.061189227 -0.034880575 0.033321407 0.07712644 -0.006925172 0.037306696 -0.070366986 0.02328544 -0.010621931 0.094173655 -0.011861714 -0.021217247 -0.14233743 0.04863122 -0.01880093 0.0805566 0.03668542 -0.020297624 0.055348497 0.12151722 2.4142662E-5 -0.20627226 -0.060530562 0.014366991 0.15119232 -5.891572E-4 0.012216121 -0.056665998 0.0060892985 -0.12548888 -0.05378013 -0.048697405 0.0961796 0.10858124 -9.7400436E-5 -0.079542644 0.004597378 0.05199262 -0.005338043 0.066390276 0.029345512 0.021508252 -0.029746678 0.09174378 -0.022996597 0.09082047 0.04482864 -0.023299415 -0.0069720354 -0.014960408 -0.04179579 0.040288 -0.010710852 7.1995734E-4 -0.025638001 -0.038742155 0.09952921 0.006022105 -0.044907656 0.043424044 0.036925375 -0.024950605 -0.0587076 0.055472363 -0.09763193 0.02923121 -0.022258183 -0.19654638 0.0025493717 0.048133906 -0.07257881 -0.15513547 0.059129916 0.0042815064 0.08408027 0.009450859 -0.1900116 -0.07739215 -0.10621635 -0.007223104 -0.1164512 0.060145136 0.07527141 2.0991627E-5 -0.020061426 0.013299548 -0.027524699 0.04281578 -9.076296E-4 0.041362494 -0.0048332145 -0.17472921 0.029250829 -0.022103185 0.099110804 -0.02638757 -0.083063215 -0.13561924 -0.023786936 0.04391779 
-0.09889347 0.10389181 0.026950074 0.08441618 0.08340554 0.19945665 0.018387413 -0.087545194 -0.04885458 -0.17185077 -0.039288625 0.0018995294 -0.068735175 -0.05675263 0.019706298 -0.03741518 0.012077652 -0.033274874 -0.061481867 0.04799439 -3.075971E-4 0.017243618 0.117680766 -0.06383254 0.026120916 -0.019591559 -0.06181866 0.0024520925 0.004157525 0.0027192938 -0.06711823 0.029085599 -0.032730285 -0.12453985 -0.030968623 -0.064500116 -0.028702404 0.0022556952 -0.032878727 0.02212312 0.16271292 -0.07595673 0.2488261 -0.19211794 0.10558173 -0.05116667 0.007841092 -0.07090923 -0.05630316 -0.078505605 -0.07823206 -0.11792755 -0.007444733 -0.087128125 0.07466109 -0.10355473 0.021425247 -0.09519474 0.099413686 -0.047140732 -0.013103889 -0.0056139054 0.020148892 0.04922112 -0.0590599 0.050070975 0.05970946 0.05059004 0.0739175 0.006545628 0.010567152 0.062089458 0.047832653 -0.03264753 -0.021853972 0.0071879644 -0.004233601 -0.026670003 -0.015333153 0.06857472 0.04523883 -0.039053775 0.0110981995 -0.006466123 -0.012464254 0.049564887 0.039845422 -0.012411648 -0.0026047365 -0.024500739 0.046099387 0.07250933 -0.01050009 0.057815675 0.03117992 0.002240454 -0.014934988 0.004538295 -0.07624592 -0.041812383 -0.0029859806 0.0584732 0.012648177 0.14397836 0.09666908 -0.046517745 0.034646243 -0.03559849 0.1726862 -0.02691101 0.0021652023 0.058431543 -0.05229512 0.0733203 0.030493097 0.005923843 -0.0052065696 -0.041722987 0.0838202 0.024525838 -0.06393515 0.0074787973 0.053644683 0.053606477 0.057423797 -0.0010821859 -0.040803313 0.016580915 0.063893735 -0.022487797 0.0380926 -0.025683401 -0.01575457 0.05092507 0.0235992 -0.17584728 -0.0032772205 -0.13817948 -0.067520134 0.04426265 -0.021307997 -0.0029304996 -0.047462314 9.958063E-4 -0.032101873 -0.025210291 0.04513218 -0.005903893 0.05181415 -0.055176858 0.10389302 0.119957685 -0.09380932 -9.860395E-4 -0.29281142 -0.068258986 -0.17001382 0.08764636 -0.07731925 -0.019772466 0.055635005 -0.11503504 0.11175433 -0.010178027 -0.046706114 0.056364942 -0.04005225 0.1538402 0.014824727 0.032933045 0.022015303 -0.012132665 -0.10462974 -0.01088956 0.0688443 0.014339669 -0.042413957 -0.0019235075 0.035225168 0.044486508 0.004093819 -0.06916164 0.02853402 -0.01560624 0.034481607 0.087058194 -0.018613873 0.033236016 0.024524678 0.06023322 -0.009150647 0.057050914 -8.0623006E-4 0.018894523 -0.08533007 0.12100039 -0.18678427 0.099392325 -0.013431171 -0.030671148 
-0.0053670187 -0.0017724677 0.0013442952 -0.00855612 -0.0032962037 -0.011182649 0.0013399932 0.0015889226 -0.23148143 0.0063084983 -0.22951812 0.010109566 0.004353619 0.0086245015 -0.00428674 -0.006643814 -0.007053051 -0.008587794 0.0031106193 -0.003519826 0.010722553 0.004256152 -7.8505685E-4 3.6954525E-4 3.3236598E-4 -0.015119853 0.008215972 -0.013308521 0.0064012376 -0.004885105 0.0032724815 -0.0012111639 0.001758181 -0.006114291 -0.0025431793 0.0036117907 0.00861487 0.0014180252 0.013180658 0.23200323 -3.1507125E-6 0.227789 0.0045186942 -0.007909195 -0.005514661 0.24146917 -0.015127273 -0.0039283684 -0.006441508 -0.24478701 0.016772259 -0.011254068 0.02383589 -0.009283736 0.009797777 -0.0053605507 0.008457406 0.0012578473 0.0030780802 0.0020510152 -0.0065900227 0.007817404 -0.005548728 0.24105991 0.0014221407 0.23246804 -0.004340625 -0.0018257571 0.0024537814 0.018046254 7.933568E-4 0.012230108 0.0031226825 -0.002066984 0.0035332425 -0.009852348 0.0051580733 -0.0035630132 0.0068140887 -0.007196127 0.0015816065 -0.009952022 -0.0051975655 -0.0059944335 0.0073055886 -0.005095355 0.01458764 -8.366411E-4 -0.0027015759 0.007589754 -0.0078408625 -0.0038412686 7.9113187E-4 -0.001927367 -0.0039423127 0.0041410923 -0.002307062 0.0054944586 1.3005087E-4 0.0036112026 -0.007791263 -0.0054211644 0.0044442764 -0.007785925 0.0093025165 -0.011956063 0.0036815568 -0.005714553 0.0053919638 -0.014191458 0.005197968 -0.009397864 0.007827507 -0.0048773945 0.00899606 -0.008555975 0.004755051 -0.010255606 -0.010371097 0.004601947 -0.006759402 0.01578125 -0.22953032 0.006823493 -0.23464048 0.005221737 -0.0010683956 0.0029972652 0.0033470865 -0.005473447 0.0021962144 -0.0030321304 -0.0060301353 -0.013135635 -0.006985092 -0.25106812 -0.005503968 -0.23506805 0.0039363853 0.005212384 0.008287105 5.4403726E-4 -0.002471246 0.0010376569 0.012386437 -0.012251364 0.019401474 -0.0014410742 0.015994241 -9.3746145E-4 0.0019347332 -0.008205348 -1.2491792E-5 -0.007643328 -0.0012539062 0.012596225 0.00521472 0.0014812956 0.0014733282 -0.0070489557 0.0019410206 -0.0018915675 0.011325758 3.7787834E-4 0.007054533 0.0010997688 -0.00309418 -9.943979E-4 -0.0025654966 0.23274593 -6.5424474E-4 0.23054887 0.002589959 -0.0019763499 0.0030431808 -0.0013921104 -0.004314015 -0.0057500703 -4.3707478E-4 9.4206294E-4 -0.0021046288 0.008469222 -0.0056821196 -6.797616E-4 -0.0013291055 -0.0023874287 0.22642598 0.0023520393 0.22414885 0.00217337 0.0110433465 5.3646095E-4 0.016616166 -0.0054864488 0.0052788164 -0.24302635 -0.0025988352 -0.23331952 -0.002454947 0.004584287 
-0.0014857821 0.0015259556 -4.8713933E-4 -0.0012174785 -3.2665825E-4 -0.0018602062 8.124719E-4 0.075230196 4.8139947E-4 0.043267757 -0.0012714874 -0.11558489 -0.0020575281 -0.0011562266 -2.2482839E-4 -6.831416E-4 0.07355491 5.5183464E-4 -0.11479491 -0.1728891 -0.0016726475 -0.0013546275 0.0029887315 -4.9904967E-4 0.11746683 0.0014431966 0.17034006 -0.07382024 -0.17001598 -1.3596617E-4 -8.3217287E-4 -7.6651946E-4 -0.0013700427 1.590453E-5 -4.404685E-5 5.63915E-4 -0.0011327218 0.11513341 0.041919127 0.07511356 2.4232209E-4 -0.0016665106 0.0019108929 0.0011889036 0.0013132298 -0.0010592141 -0.07282397 0.07351733 -0.17261608 0.0012974966 -7.5171096E-4 0.0010920358 0.1171039 -2.1983804E-4 -0.0028629769 0.001029096 5.045511E-4 -9.244449E-4 3.1927833E-4 -0.116469964 0.11932927 -3.500685E-4 0.001616704 -0.11600314 0.001014029 0.07767198 0.0017318324 -1.01707534E-4 3.0810075E-4 -0.0018115167 -7.466782E-4 -0.11685309 3.622923E-5 -7.321924E-4 -0.17225482 -3.116722E-4 0.05508404 0.17048463 -4.2380072E-4 -0.0011241019 0.0014122383 -5.5180717E-4 0.0016942156 -0.0022141228 1.4267683E-4 -0.0016416438 0.16904934 1.6868245E-4 0.07321783 8.0217497E-4 0.07236784 9.214474E-4 2.1778316E-4 0.0022545927 -0.11712187 0.0023758798 0.11694493 0.07315504 3.4654018E-4 0.117224574 0.19392936 -3.7263127E-4 0.0029527158 -0.0015293676 0.0022030615 9.3856314E-4 -0.17071794 8.3176896E-4 4.5306998E-4 -1.1141343E-4 -2.5619226E-4 0.0035321142 4.3200346E-4 0.0016354896 0.074199766 -0.0019603372 -0.07347625 -0.0037189985 0.17024416 1.0872296E-4 0.17026372 -7.9719204E-4 -0.075034246 -0.0016718613 1.0379801E-4 0.002708802 -9.887405E-4 0.0015786024 0.07322247 -0.002388544 -0.11299502 -0.17383666 -6.499214E-4 0.0016513866 -0.11899673 -0.00150924 6.2030705E-4 0.0020196321 0.0015584087 0.07397687 -3.5684547E-4 0.0013856901 -0.001999151 -6.303421E-4 -0.0010446955 -0.07256256 -0.0013251638 -0.0014326635 -2.8758335E-5 -4.0171997E-4 -9.507464E-4 -0.001491827 -3.8398986E-4 -0.19056302 -0.17289045 8.27242E-4 -8.9822116E-4 3.3595765E-4 -0.16997015 0.24387412 -7.360976E-5 -9.959466E-4 0.0015611955 -6.392741E-4 1.247738E-4 -4.4794977E-4 -5.810227E-4 9.725003E-4 0.00103521 0.0028210827 -0.07410948 3.0913544E-4 5.6895637E-4 -0.0013979946 0.041540366 0.0020190836 -9.763024E-4 -9.1811395E-5 0.0961226 1.9710301E-4 0.0013105513 0.07366887 0.0012350993 -0.14466621 -0.0016573005 -0.0016585729 0.24235238 -0.0012490222 -0.0011418699 0.0015332545 -0.17209664 0.0013354089 0.17215487 -0.16997415 -5.029658E-4 5.447179E-4 -0.07257587 -2.2624276E-4 -0.07698789 8.4229326E-4 
-0.012660395 0.04080464 0.07126958 0.040872563 -0.08039871 -0.09376392 0.08736007 0.020480767 0.026813358 0.013821452 -0.059482716 -0.06833181 -0.009510908 0.0030666492 0.021122254 0.019548973 0.1556029 -0.09196824 0.035997916 0.019821392 0.16909638 0.040070042 0.03435608 0.124835484 -0.084192984 -0.003526889 -0.0590829 -0.065449074 0.09975825 -0.087079056 -0.10584826 0.020896276 -0.14717036 -0.056071095 0.020232288 -0.032115865 0.20138696 0.08132568 0.007818807 -0.0017490704 0.058971502 0.048773117 -0.092919715 -0.056124136 0.0888117 0.061064027 0.04566487 0.07517485 -0.021082273 0.060529217 -0.17036775 0.020948581 -0.12376085 0.020352824 0.075338565 -0.04039124 0.014653022 0.050434515 -0.052384354 0.15185805 -0.040108807 0.09192497 -0.014268379 -0.117788054 0.02353953 0.014893604 0.03606682 -0.0124991955 -0.031643134 -0.076775886 0.0063185887 0.024866572 -0.047240958 0.0043315995 0.029283848 0.007870798 -0.051758174 -0.013203955 0.027250988 -0.08833046 0.0024376998 -3.1219822E-4 0.009735487 -0.11212269 -0.051217485 -0.03992217 -0.12250328 0.05444635 0.04682771 -0.09168453 -0.04840651 -0.12004003 0.015892677 0.10865996 -0.04998811 0.06360843 6.2019605E-4 0.073161274 0.08192131 -0.053599026 0.0017002224 0.05327515 0.06442266 -0.01768363 0.08423257 0.020097349 0.08773031 -0.014307329 0.09557841 0.041910794 -0.13193797 0.008636328 -0.018690785 -0.043172017 -0.029269842 -0.08261075 0.09597417 -0.09103425 -0.083558 0.083702534 -0.06523497 0.030995259 -0.08830789 -0.11903945 -0.056207772 0.28898615 -0.029770166 0.032823127 -0.02478721 -0.046004165 0.11945811 0.00787369 -0.06903134 0.012931912 -0.0034506237 -0.022254443 -0.035500765 -0.053259138 -0.060321596 -0.009142252 -0.07925566 0.06148037 0.0048750723 0.1770532 0.07125464 0.011850292 0.08332919 0.027333507 -0.037531752 -0.16700464 0.09225062 -0.04164485 -0.021807771 -0.062068094 0.009372104 -0.03855712 -0.016634595 0.024691483 -0.044502303 -0.09040653 0.0015099462 0.023850754 -0.0016414557 0.033536557 0.014018681 -0.111256935 -0.040222242 0.07494403 0.069708966 0.048714846 0.10112961 0.012009584 -0.065084785 0.0014470739 -0.07437555 -0.045022726 -0.015913457 -0.05205619 -0.047122102 0.1540855 0.01177723 0.046654902 0.07367349 -0.11335617 -0.06820313 -0.05982921 0.0229488 0.03840492 -0.13186856 -0.035302125 -0.031348288 0.007917817 0.06257802 0.036561374 0.056675013 -7.742713E-4 0.055198774 0.025346298 -0.0033710431 -0.029519403 
-0.15026732 -0.026991786 -0.09908561 -0.009606258 0.020304382 -0.056388754 0.08696827 0.043061133 -0.04317972 -0.002229637 0.023612248 0.021449214 -0.031765442 -0.042330425 0.049128935 0.006127613 -0.015970184 0.023466863 0.022969838 0.003971642 0.018784149 0.030160518 0.0062684105 0.07483841 -0.013745198 0.07703066 0.13030238 -0.057741757 0.090821326 -0.09176634 0.16471037 0.017803207 -0.07030294 0.14970337 -0.004390424 0.22245987 0.13398172 0.026682401 0.082626134 0.07974983 -0.0035035932 0.06791874 -0.013504438 0.021812432 -0.12143607 -0.06663269 -0.048331805 0.009376584 -0.17809093 -0.08354133 -0.01239924 -0.058792397 0.084942944 0.0024046702 0.12783535 0.02878649 -0.045271907 0.003891427 -0.10306999 0.09594207 -0.079332024 0.09484957 -0.09283527 0.0073605315 -0.078925855 0.018333582 -0.03329901 0.0995642 -0.03647168 0.100739524 0.015371715 -0.007576996 -0.011786442 -0.06240993 -0.14882857 -0.09530895 -0.0083875535 0.010232245 0.03751336 0.01994019 0.10917546 -0.023242656 -0.026669713 -0.013079448 0.06745665 0.048775055 -0.0099615175 0.087115526 -0.015265914 0.008140255 -0.051957317 0.026015807 0.007279078 0.08296565 -0.031277034 -0.010595578 -0.03250873 0.07675264 0.016673924 0.21171033 -0.008907884 -0.1391667 -0.03929036 -0.0012941591 -0.0012586107 -0.035091743 0.068348944 0.007012871 0.015559402 0.031255692 0.06251587 -0.0011398307 0.082657106 -0.0059270663 0.020749724 -0.036020998 0.015619773 -0.070141524 0.01787414 -0.14922489 -0.025883576 0.04839767 -0.102330595 0.065016374 -0.15857954 -0.010287005 -0.027334252 -0.002124938 0.09739497 -1.7044348E-4 0.024455348 -0.045720376 -0.20773841 -0.0015010051 -0.12525603 -0.044955056 7.153131E-4 -0.04700678 -0.03178492 -0.029035004 -0.023115864 -0.21456581 0.0069328086 0.0344628 0.010984343 -0.03189117 -0.011687401 0.031699028 -0.023352882 -0.015508035 -0.0071375733 0.018678825 0.0056773573 -0.0075917756 0.06515638 0.082863666 0.10262249 0.15997194 -0.050300784 -0.08749093 -0.010996968 0.11831111 -0.033119403 -0.09637346 -0.039405428 0.03611366 -0.051679857 0.051712316 0.0012114075 0.002110889 -0.062123284 0.06272246 0.035281364 0.081368305 -5.258544E-4 0.027489116 -0.01338491 0.012471405 -0.07640944 0.040236443 -0.18042754 -0.031831004 -0.113447614 0.030153561 -0.04099524 0.07301584 -0.08539966 -0.06698558 -0.020488769 -0.012031951 0.03999446 0.011018114 0.086465694 -0.004059634 0.07885042 0.024900768 0.0071607786 0.09342391 -0.117341936 0.010405404 
-0.036599804 -0.09411061 0.009768093 -0.078089476 -0.0036767602 0.020686634 -0.12082013 0.049435686 -0.02175614 0.081518024 -0.005236994 0.071129635 0.029959345 0.0038369491 -0.045082733 -0.0727122 -0.0013364668 -0.08859916 0.14818443 0.013938604 0.073750205 0.016909476 0.026080009 0.04789073 0.11802623 -0.048448764 0.10891244 0.10303424 0.024707481 -0.02256028 0.08324248 -0.09624304 -0.03508041 0.08766192 -0.07365769 -0.012369083 0.06233801 0.0069111916 0.017822824 0.05425937 -0.1288259 -0.07447766 0.04735336 -0.15004165 0.014155387 -0.05419809 0.026683176 0.03426498 0.019835034 -0.15608753 -0.061323296 -0.053339735 -0.03314722 -0.1683712 -0.106197305 -0.06457621 0.020474868 0.011049579 -0.037675664 0.19736458 0.0050470196 0.12253952 0.08962839 0.076732196 0.061118905 0.091207646 0.010901758 0.15388939 0.030021356 -0.03794272 -0.19733466 -0.022317825 -0.025746796 0.06509233 0.023605388 0.03102158 0.0137954205 -0.022061035 -0.048662573 0.09884498 -0.13818297 -0.06744045 0.014174347 0.024963401 0.056383263 0.07287793 -0.02794394 -0.016078644 0.020073516 -0.13958068 0.029231295 0.0019974497 0.06954793 0.013842993 -0.062168807 -0.013080164 0.0098344935 -0.062144876 0.013836815 -0.009043907 -0.085619465 0.015647031 -0.04503949 -0.07315805 0.009101049 -0.1063048 0.022234786 -0.06486817 -0.024076577 -0.068522 -0.12264848 0.09411557 -0.00525908 0.042940117 -0.014545834 -0.039940476 0.043812603 0.17990701 -0.040274158 -0.030346375 -0.06623703 -0.03329369 0.03603435 -0.042189475 -0.0991307 -0.07670082 0.024736363 -0.07615937 -0.042420395 -0.08521954 0.15218839 -0.04839262 0.057640795 -0.057508476 -0.012329241 -0.06973417 0.094996765 0.08997622 0.10480927 -0.009107012 -0.041553307 -0.07209135 0.0081099775 0.08345708 0.08376539 0.0034505299 0.0073338337 -0.046131738 -0.026048413 -0.11225469 -0.04692141 0.031593442 0.030794956 0.013292455 -0.02536528 -0.007991523 0.012217159 0.038651496 0.04530588 0.06563312 0.06420913 -0.09678916 -0.0073692547 0.0066754175 0.036654364 0.092213206 0.02339851 0.12805855 0.059051357 -0.06413932 0.07267501 -0.008202788 0.016133908 0.005323907 0.116661794 -0.023536809 -0.15151276 -0.07208517 -0.078338474 0.0455532 -0.063114755 0.030060602 0.09394954 0.009844656 0.019007921 0.04122639 0.030972894 -0.065667674 0.008093394 -0.024551291 -0.15029818 0.10277247 -0.031255964 0.16208535 -0.024064597 -0.087052196 0.10588926 0.0541353 0.0040424955 0.04786169 
-0.042030413 0.032965746 8.192817E-4 0.044088986 -0.027085206 -0.03983346 -0.012980441 0.031123595 -0.0035587386 0.060267296 0.031914923 0.09880452 -0.15059315 -0.07391739 -0.005895558 -0.015903661 -0.015000637 -0.0635966 -0.047408495 0.019143201 0.16222465 0.06636673 -0.0055772564 0.07781564 -0.06474888 0.016630689 0.00769166 0.020077983 0.034008317 -0.096021906 -0.054689933 -0.0760975 -0.12450979 -0.060243037 -0.08477279 0.023356473 0.06464687 -0.0043497854 0.093477294 0.098857425 -0.11608676 0.046066288 0.053877126 0.14623304 0.015394844 0.12730439 0.037705585 0.01749769 0.12839699 0.036332663 -0.026076498 0.014921696 0.012568923 0.0052979267 0.006384791 -0.040715124 0.0013165813 0.1117127 -0.08660757 0.0072487006 0.017267436 -0.10355418 -0.12595293 -0.0016909569 -0.037971057 0.095830515 -0.07764379 0.1302462 0.08927315 0.061990257 0.002267157 0.021706253 -0.008780398 -0.1483925 -0.005185998 0.018869372 -0.114021406 -0.016746968 0.08569948 -0.01752052 0.005553006 -0.14053345 0.027901296 -0.008804495 -0.0035914273 0.06369136 0.12805718 0.024816846 -0.120699234 -0.0040598433 -0.18017574 0.095922254 0.021869965 0.0015400642 -0.07627581 -0.11019974 -0.008975751 -0.0387733 -0.010086334 0.17207335 0.09380158 -0.010044195 -0.07087645 -0.056446794 -0.013135675 0.037984334 0.031408586 -0.047361307 0.20175754 -1.8478592E-4 0.032025415 -0.01133796 0.0072962884 0.14864723 -0.12876885 0.017348118 -0.04989662 -0.01688632 -0.13226974 -0.039541006 0.04336236 -0.01496064 0.11475961 0.103589036 -0.0038178843 0.008082096 -0.0070776218 -0.02271765 0.03516251 -0.047625374 0.015080853 -0.12541196 0.049607933 -0.0033645546 -0.018155538 -0.019002507 -0.09527157 -0.0014871558 0.021223886 -0.037858915 -0.02624789 0.039694797 -0.09344502 -0.055883963 0.104411796 0.015064383 -0.009646026 -0.013200596 0.009536643 0.03631826 0.020297209 -0.005995988 -0.10795536 -0.0402805 0.060732875 0.037040457 0.06384504 0.01754908 -0.0319783 0.15819107 -0.134902 -0.08067452 0.049296375 -0.03276257 -0.15276591 0.015694294 -0.07800823 0.0694218 0.007990352 -0.10390484 0.114184536 -0.13601325 0.15748115 -0.029151313 -0.014171038 0.013806677 -0.032785635 0.012226734 -0.041432492 0.055406153 -0.024778392 0.0011155418 -0.035964582 -0.0064154714 -0.09448207 0.024692232 -0.06503047 0.053596135 0.029807141 0.19959024 -0.028483467 -0.06200001 0.015616096 0.039012473 0.031915188 0.021985019 0.027462289 -0.00461578 -0.048971727 -0.017845964 
-0.056147218 0.15134546 -0.03160146 -0.04122135 -0.0013611703 -0.0715293 -0.027767973 -0.027723221 0.024200046 -0.046242718 -0.023136092 3.390902E-4 -0.030758297 0.058651976 -0.05339565 -0.047541596 -0.03839402 0.069380015 -0.013765056 -0.03921852 -0.036576882 0.0068435366 -0.043745946 -0.016786527 -0.035584055 0.11182873 0.005325936 -0.07269997 -0.049195286 0.03148287 0.014796308 -0.07190541 0.0082143545 0.004753203 0.023428345 0.0574188 0.04025521 -0.017474528 -4.674093E-4 -0.01794524 0.1704842 -0.038106035 0.08284471 -0.062570885 -0.009458256 -0.09057817 -0.026662508 -0.09538718 -0.02107485 -0.024413425 8.975671E-4 0.01335453 -0.0146217495 -0.07091661 -0.006921168 0.11881326 -0.049441077 0.042376466 -0.045195296 0.04668799 -0.0072046802 -0.13605697 0.060932178 0.043868184 -0.095343 0.04250634 -0.11359741 -0.031677466 -0.09814548 -0.013968843 -0.024618676 -0.056861717 -0.037178855 -0.025819855 0.06000102 -0.008721169 0.055091385 0.052113127 -0.02535628 0.035038214 -0.10114251 0.098447636 0.016995668 0.037487198 0.03853306 -0.12175657 0.044317324 0.08302675 0.023145005 -0.11021614 -0.18801665 0.007818141 -0.048037753 0.059562717 -0.016737303 0.04343917 0.015060129 -0.014288972 0.0447168 -0.022628011 0.22260231 0.016724708 0.182176 -0.039110404 0.07680531 -0.1731599 0.045090478 -0.034152593 0.06555172 0.08574515 0.009037516 -0.061735377 0.07707163 0.023840707 0.113019206 -0.0041980515 0.10311437 0.13246456 0.12857099 -0.004346991 -0.016285561 -0.0070565264 0.10903516 -0.058829796 0.011983049 -0.024249118 0.08010816 -0.02021307 0.05352126 -0.15441036 0.14727749 -0.04357331 0.1689432 -0.017074045 -0.083212316 -0.068548106 0.022674719 0.008027967 -0.007960378 -0.052316878 0.04533799 -0.18559623 0.026792223 0.032991227 0.0786009 0.00363872 -0.005918341 -0.18298514 0.1805683 -0.14169206 0.05008094 -0.11142084 -0.116116256 -0.048450332 -0.061574403 -0.063398 -0.009281737 0.031380165 0.00406765 -0.054595497 -0.12596941 0.10477766 -0.048656583 0.10657983 -0.04280926 0.12611891 0.0017944373 -0.040809687 0.013449266 0.009162022 0.13528875 0.0609608 0.04458997 0.027964171 0.011650624 0.02900008 -0.011262474 0.0068016616 -0.037903417 0.04307351 0.0125227785 -0.0790552 -0.041429963 -0.028085994 0.021822525 0.008580235 0.009223612 -0.087385565 -0.05001946 0.08069718 -0.05995918 0.010962054 0.063139915 -0.008224333 0.071142145 -0.10114255 0.009313925 0.024590632 0.015781248 0.04745114 
-0.020320589 -0.003947119 0.0030110448 -0.028133413 0.009273553 -0.016226577 -0.002489861 -0.27639478 0.0034996283 -0.021541718 0.010987211 -0.073084414 -0.005007499 -0.0020033708 -0.0037045125 -0.008616408 -0.0021399956 -0.0073450888 -0.004718436 -0.0077342973 -0.01183836 -0.022509757 -0.016864462 -0.005960351 6.401751E-4 -0.026372131 -0.014016052 -5.944708E-5 0.0017778574 -0.039329764 -0.03332088 -0.024829729 -0.10689389 5.7744415E-4 -0.010977578 0.0048143854 -0.0039049461 0.082721345 0.0036862795 -0.03763256 0.030513505 -0.18191682 0.013679925 -0.08665406 0.006950258 0.0013032807 -0.006515433 -0.00741658 0.082778014 0.003909877 0.021294652 -0.0066860863 0.0039765267 -0.0071535353 -0.017000396 -0.020144163 0.14810437 -0.0051846644 -0.009658806 0.0036420051 8.921533E-4 0.0029287313 -0.0038768477 0.001934446 -0.009422951 0.060046896 0.14764585 -0.054239288 0.30280563 7.340727E-4 -0.0029642729 0.0065562665 0.070196696 0.083452724 0.0064121573 -0.0061598658 -0.06981356 0.013710678 -7.831493E-4 -0.14103314 0.008400476 -0.14410265 -0.023719303 -0.11292358 0.13457714 0.025936322 0.008360649 -0.034723416 0.0016175405 -0.036443878 -0.007923476 -0.010651196 0.030436022 0.0060144095 -8.7220786E-4 0.017242914 0.00271042 0.03939379 0.15098101 0.027997702 0.15718277 0.0038738793 0.09218583 -0.014160925 -2.4988712E-4 0.004067235 -0.0023566408 -4.8317527E-4 -0.19888648 0.13058797 6.977363E-4 -0.06251836 0.0046578874 -0.08077411 -7.2620844E-4 -0.0060259686 -0.018821826 -0.16562061 0.0057425248 -0.006960715 0.006358066 0.0042782556 -0.013370299 -0.0068330695 0.009238411 0.016445985 -0.0070775994 -0.0014348866 -0.20403785 0.053729504 -0.0032193062 -0.19223674 0.04210013 0.020231934 -0.0038072474 0.023827495 0.0027920215 -0.1470925 0.061470345 -0.09043654 0.007531662 -0.007967249 0.049973108 0.008410575 0.025695065 0.13722093 -0.001480745 -0.011311648 0.00803908 0.0012077941 -0.19911985 -0.0102027645 -0.07868387 -0.006271788 0.009330876 -0.019482085 0.08478135 -0.017237816 0.004751277 0.0300649 0.0030068092 0.19053614 -0.034993242 0.021574894 0.022973992 0.0010249409 -0.020182207 0.0106242625 -0.020807747 -6.369125E-4 -0.14858334 0.19945905 -0.0069766664 -0.07033618 -0.13158189 0.20262231 0.1395799 0.016936397 -0.013535087 0.010756336 0.042998422 -0.06764513 0.09555918 0.0027006164 -7.740473E-6 0.008334286 0.20855632 -0.008306093 0.050965097 -0.0075820265 0.044007882 8.721265E-4 0.0017115963 0.0023613814 -1.7210821E-5 9.838019E-5 0.079845764 -0.010734997 0.016217422 -0.0011649355 
0.028055599 -0.05046597 -0.066138424 -0.02976361 0.017449083 -0.037750203 -0.036511946 0.1172569 -0.015011875 0.038788125 0.070265174 -0.0292378 0.033852454 -0.056825455 0.038520988 0.0025646752 -0.02852889 0.02187614 -0.15915038 -0.049064342 0.024740731 8.810224E-4 0.017814122 0.011836561 -0.00515771 0.01043414 -0.0010448761 -0.26930505 -0.003534533 -0.18436565 -0.013964112 -0.0076871156 0.008066131 -0.024037769 -0.02722769 -0.041033506 0.024670342 -0.0026829415 0.020057494 -0.018821724 -0.013899858 0.08881712 0.033401705 -0.11372786 0.051473483 -0.043369453 0.025070168 0.03938881 -0.15672146 -0.024287246 0.016939819 -0.035428736 0.01310657 -0.05552932 0.12070428 0.11622017 -0.011998356 0.029783655 -0.11001717 0.16596048 0.07516035 -0.04427409 -0.08882326 0.14493309 -0.005583769 0.049517095 -0.034818854 0.017433232 -0.08032879 0.12553924 0.065879114 0.0059483093 0.01667993 -5.6615867E-5 -0.006206741 0.025966661 0.049743567 -0.024348617 -0.028797036 -0.0030558493 0.06272472 0.15447065 -0.01862927 -0.074935384 -0.027373778 0.032958306 -0.16970694 0.008345332 0.027727997 -0.0165486 0.105991505 -0.051858824 -0.021059303 0.010395523 0.1365448 0.051309563 9.7007595E-4 -0.007224999 0.15014276 -0.008252634 0.06340573 -0.044667304 -0.0653293 0.19623244 -0.042120446 0.04070157 9.93756E-4 0.07041415 -0.0026212912 -0.040815603 0.008072299 0.03911295 0.017321112 0.04718545 0.033613484 -0.044993788 0.034381744 -0.014045662 -0.017137522 0.033194263 -0.0995816 0.023544291 -0.0046317615 -0.013954102 0.0016193725 -0.021341715 -0.015095798 -0.0053296112 0.0029500884 -0.0121386 0.0253427 -0.030653618 -0.049090132 -0.0060139094 -0.03169803 -0.016171984 -0.07636887 0.16723265 -0.14780721 0.0016879764 -0.13259809 0.14513174 -0.062314197 0.054851267 0.06781529 -0.22409804 -0.005394313 -0.027531259 0.0036777072 0.0077160066 0.036314998 -0.08067912 -5.655004E-4 -0.017391 0.026143767 0.009713816 0.0016316575 -0.0010755511 0.014422284 -0.10912004 -0.002107897 -0.04766355 -0.03893454 -0.017692715 -0.04307162 -0.015335282 0.15586065 -0.058124255 0.16652338 0.015837997 -0.013169993 0.048212327 0.027135337 0.14669923 0.006760711 0.08917195 -0.012972946 -0.1376059 0.013948822 -0.13268623 -0.014634251 -0.029338641 -0.1896174 0.028056724 0.012478477 0.19056463 -0.026176723 0.070270054 -0.018249141 0.034526836 0.008694485 -0.047550026 0.01718265 0.035952173 0.020859528 -8.7987265E-4 0.02489774 -0.11233315 0.01825289 0.042097054 
-0.08312063 -0.018905215 0.07415412 0.01933485 0.04786466 -0.124289826 -0.018792473 0.053479355 0.035416342 0.011228167 -0.049383957 -0.20286259 -0.10686449 0.009685666 -0.18302007 -0.02216218 -0.025177347 0.028944546 -0.018897923 -0.1043275 -0.014043686 0.024717025 -0.0744223 -0.020780645 0.011075566 0.03980909 0.02078626 -0.14783187 0.007222722 0.0807603 -0.01874504 0.009070551 -0.0018344487 -0.004380049 -0.1595224 0.023516065 -0.06460277 0.053307373 -0.09411417 0.09109343 -0.1143647 -0.08180727 0.06025869 0.030951252 0.080451205 0.0067815986 -0.11523833 -0.15876563 -0.030715905 0.023515504 -0.09585104 -0.019796405 0.009462149 -0.02620349 -0.058470443 0.03292091 -0.0111150835 0.05970962 0.14018038 0.06502498 0.067152925 0.03662938 -0.011701961 0.082420394 -0.02230232 0.12736993 0.0813104 0.051804293 -0.050169293 0.075068854 0.069442935 -0.012171077 0.044543784 -0.0066739353 0.0615802 0.11580567 -0.038903054 0.07856487 0.049108755 -0.054628182 -0.049631722 0.078725904 0.005122543 0.0275173 0.050527222 0.095466286 0.054755695 0.04271849 0.115058616 -0.110669754 -0.0063362126 0.02736126 0.11459282 0.124182515 -0.03952956 -0.090183765 -0.10198756 -0.053526588 0.033616032 -0.018328 -0.15986195 0.031960886 -0.08101849 0.024154603 0.004739139 -0.07253908 0.052496545 -0.0193982 -0.1075972 0.035464555 -0.069698244 -0.13039748 0.056471974 0.056927912 0.08041718 -0.066944174 -0.054500457 0.05538366 -0.018579902 -0.017401634 -0.071644165 0.09532298 -0.008189985 -0.013354001 0.04847493 -0.009481098 0.045536086 0.12423803 -0.038590353 -0.06122786 0.09703183 -0.054640517 -0.058817983 -0.012820729 0.09569949 0.096661195 -0.03579049 -0.03358952 0.07966476 0.037583314 0.012557342 -0.04226508 0.095843844 -0.021637466 -0.047173165 0.009938813 -0.0076938076 0.035193704 -0.0023865956 0.07233811 -0.118616275 -0.18957213 -0.04077222 0.026658617 0.05381251 0.033735927 0.07805813 0.032654304 0.05144032 -0.04288866 0.005224685 0.14954981 -0.056383476 0.02265696 -0.071792096 -0.016993167 -0.10449975 -0.01773441 0.025584765 -6.633434E-4 -0.09826595 0.029390072 0.046923168 0.040691316 -0.047703788 -0.036902316 0.06948821 -0.013281233 0.03616467 -0.10693226 -0.08934677 0.09358234 -0.05416737 0.041585293 0.16735326 0.0828295 -0.039674893 -0.06187321 -0.1444591 -0.0023472125 0.10504456 0.08333269 0.057137445 -0.009048057 0.001815464 -0.063228585 0.034998372 0.02371847 -0.012747111 0.09626479 
0.010542943 0.32447514 0.058111932 0.043733653 0.070926204 -0.10093932 0.0058797393 0.07855146 -0.11065353 0.024033997 0.046308424 0.05114139 -0.09952543 0.058482893 -0.077849545 0.0072028837 0.030000973 -3.908051E-5 -0.050285753 0.06984236 0.088687606 -0.008680193 -0.02731247 0.052091084 -0.046887755 -0.046025943 0.028260173 0.07947036 0.031932056 0.027119668 -0.025277644 -0.11519092 0.021013318 -0.045475807 0.010433486 0.10592665 -0.08115067 -0.031164853 -0.0062324433 -0.14976332 0.027222024 0.008708713 0.0500058 -0.09733415 -0.1644163 -0.055957343 0.06992183 -0.0030850125 0.02905968 0.002091941 -0.0076627065 0.018034393 0.0075082397 0.008776249 0.082866184 -0.0885477 -0.033664532 -0.014716335 0.025494006 -0.022393618 -0.10525071 0.1578253 -0.14597423 0.10213705 -0.054301076 -0.0062764026 0.039094407 0.0058766147 -0.067153506 0.056001227 0.06742694 -0.050333265 0.072459884 0.12588319 0.049019273 -0.022577576 0.048286345 -0.14695981 -0.026987834 0.007628854 0.026951196 -0.021070467 -0.013986558 0.006998515 -0.011092081 0.12089626 0.0052864207 -0.017115347 -0.019739017 0.038509578 -0.016162872 -0.044220492 0.029194307 0.020576417 0.023354702 0.08203755 0.02563018 0.11547765 -0.123019874 0.014820036 0.031468514 -0.10417895 0.07962054 -0.013282618 0.038665146 0.05903014 -0.055416998 0.0029861683 0.04308521 0.009188838 -0.09118319 -0.029829692 -0.025355393 -0.043224227 -0.074927524 -0.10801503 -0.04533106 -0.095078036 -0.016117925 -0.04458276 -0.024416883 -0.02561604 -0.088463366 0.061347723 -0.025430877 -0.005278078 0.07988199 0.12277676 -0.009243573 -0.018975768 -0.11956473 -0.014574449 -2.6683858E-5 0.037737567 -0.11161517 -0.08862793 -0.06403509 -0.05380312 -0.04000895 0.03334536 -0.16352884 0.09265631 -0.017211724 0.016429184 -0.002839482 -0.07933449 -0.1325494 -0.032330826 -0.002053543 0.11564035 0.12812233 0.13286972 0.09866999 0.093439214 0.06780754 0.040800184 -0.024506131 -0.0027766516 0.023493478 0.087866224 0.14984795 -0.014069315 -0.08381362 0.0045345277 -0.023015553 0.080707446 0.0287027 0.076528236 -0.012148537 -0.022124484 0.016001567 0.08730564 -0.0243877 0.10599306 -0.06593834 0.08707857 -0.09402779 -0.044600893 -0.058859333 0.1143162 0.054761197 -0.049795687 0.017138606 -0.027173815 -0.09433215 -0.0328445 -0.032796312 -0.07828769 -0.08479902 0.06483922 -0.061851952 0.1332505 0.04074393 -0.090582736 -0.08086458 -0.08825059 1.525075E-4 0.016862832 0.021059722 -0.031696543 
-0.010870249 0.07259408 0.01880638 0.06644822 -0.04004743 0.02750545 0.07768705 -0.044941917 0.03613583 -0.009127568 0.18953113 0.014861734 -0.017532526 -0.056119394 0.08747168 -0.1304665 -0.0145125305 -0.06085272 -0.16327496 0.15093558 -0.028372195 0.008336498 -0.034539104 0.030073633 -0.041751415 0.027695265 -0.03284579 -0.047388956 -0.01496787 -0.03639267 0.10774086 0.0068621724 0.009514944 0.035213433 -0.0042538843 -0.059049025 -0.0101259565 0.08573088 0.073518865 -0.24705657 -0.04110968 -0.059623387 0.0015743925 -0.037038144 0.019034097 0.017219156 -0.015249305 -0.04958201 0.0054693115 0.010447587 0.01595344 0.003235461 -0.00669853 -0.021989238 -0.013070159 -0.028499922 -0.015451027 0.08706411 -0.01871967 -0.12973647 0.029926993 0.14287543 -0.0047702505 -0.05018969 -0.12947927 -0.044420242 -0.047963336 -0.030703707 -0.079815365 -0.143986 0.046919297 -0.027763242 0.12000241 -0.03642647 0.02657586 0.20808457 0.03811363 0.040971253 0.0518105 0.12539767 -0.015357806 0.012174778 0.0142535055 0.013287591 0.006390627 -0.01814207 0.05528636 -0.029312978 -0.10031636 0.0050925366 -0.0072565665 -0.023677444 -0.01322886 0.018400123 0.093954936 0.005230915 0.03226186 0.006193076 0.030591283 -0.0055133905 0.044893976 0.0014858486 0.010888581 -9.647856E-4 0.044228002 0.008463697 -0.0051230807 0.18020609 -0.006812592 3.518491E-4 0.059125524 -0.022519704 0.08346631 -0.044977576 -0.11091752 0.18656884 0.17282073 0.08966475 -0.029664867 -0.096115924 0.038463067 -0.020474426 0.011786076 -0.11417818 0.06363731 -0.09504638 -0.031362377 -0.06821527 0.022463381 0.18392931 0.10877837 0.010906734 0.01891496 -0.02956466 0.009766807 -0.010060558 -0.06708379 -0.014245101 -0.015724285 -0.012263918 -0.0063977004 -0.005390099 0.0014882562 0.0013460774 -0.026285395 0.031739376 0.0958071 -0.010750112 -0.025429623 0.061518487 -0.12058889 -0.09401726 -0.032061107 0.15604514 -0.03521201 -0.021844614 -0.15740825 -0.037216134 0.017396744 -0.05484691 0.0317107 -0.0033060473 0.061949663 0.022744356 0.043449752 0.04618852 0.020656345 0.0105990525 0.032735623 0.02605986 0.038119182 -0.0148548735 0.011981088 -0.14816555 0.007997242 -0.015628751 -0.025557999 -0.054190956 -0.07095565 0.097682625 -0.0699077 0.011460269 -0.079077154 -0.014667504 0.04595144 0.021795183 -0.007234864 -0.001076041 0.047276046 -0.025066838 0.08918776 -0.043466907 -0.17960912 0.042016074 0.03921553 -0.008634411 -0.018753204 -0.30746114 -0.016111568 8.389247E-4 
-3.1438144E-4 0.019373149 0.12356794 -0.03174558 -0.1331133 -0.00135051 0.0017696136 0.028770901 -5.5662767E-5 0.0843608 -0.12304694 0.072358064 -0.12456707 -0.15909095 0.07769708 -0.09887042 0.060164705 0.11040559 -0.0018871957 0.002476753 -0.002220618 -0.1236134 -0.14825352 -0.16202763 -0.26081595 -0.009496705 0.025207197 -0.11951815 1.6485373E-4 -0.0020923514 7.9576287E-4 -0.0013707285 -0.0012330719 -0.042492524 1.0323137E-4 -0.033382744 0.11733195 0.0096055 0.15929492 -9.954539E-4 0.08531759 3.125865E-4 -0.0015170735 0.008319361 0.021191277 1.6656582E-5 -0.15556046 -0.07570864 -0.12222068 -0.07271576 0.035222728 0.002331859 -0.0011710394 -0.0033557238 0.0011142245 -0.010030214 -0.0010372706 0.0760826 0.008670765 0.12237377 -4.9637386E-4 0.0012807751 0.009000518 0.1397224 -0.0012332486 7.012027E-4 -0.022313438 0.03381231 3.4758385E-4 0.004019505 0.0027279942 0.050979976 0.022710273 0.055115107 -0.024297064 -0.006078169 0.0039489674 -0.0017259918 0.042234797 -0.0015806385 0.12234184 -0.042854734 0.13951811 -0.0032171349 0.124052264 7.702112E-4 0.12974764 -0.108065896 9.70628E-4 -0.1244857 -0.044270094 0.0018381774 -0.04523426 0.0011910769 -0.04560156 -0.028369877 -0.12297722 -0.002450988 -0.117376104 0.13990687 -0.13692679 -0.008451567 0.0017737956 0.0022587806 5.52456E-4 -0.008399556 0.0028744957 0.06881339 -0.0020917149 0.092960514 4.907863E-4 -0.048990402 0.0020011005 3.9440085E-4 0.12405329 -0.04121612 0.12776114 0.014132266 -0.01297759 0.19098744 -0.001360546 0.1243936 -0.0015015765 -0.090230994 0.0011279667 -0.12212441 -0.0020210037 0.022541378 0.0028366658 0.003815154 -0.07763747 -0.011814822 -0.078559555 0.027239133 -1.9161301E-4 9.0064853E-4 -0.013047614 -0.012969762 -0.08044778 0.033448063 0.004136003 -0.0013716202 -4.5029333E-4 0.0035011899 -4.5760925E-4 0.0048566423 0.13526203 -6.51241E-4 0.19427994 0.0016060524 0.002936705 0.005506556 -0.0017161149 -0.07118112 -0.004877674 0.0061003743 -0.022488639 -0.015664555 -0.08359375 -2.6979184E-4 3.507014E-4 -0.017334603 -0.021430342 0.037837848 -1.2727438E-4 -0.07562584 -0.0013263506 0.0025882574 -0.009386172 0.07789101 -0.001927059 0.024086853 0.013366137 -0.003680977 0.108509995 0.016280508 0.0027057282 -0.011735086 0.0011571307 9.6849335E-6 0.08906719 0.22176643 0.112682566 0.08408449 -0.05971691 0.035225984 -0.00783014 0.034033153 0.0100698825 -0.005715279 -0.00239041 -0.116298735 -0.1388352 -0.10877098 0.008601849 0.0669521 0.021771858 -0.0052102176 -0.14577521 4.0658904E-4 
-0.033972286 0.12727425 0.04496039 -0.0065493886 -0.15508358 -0.065037616 -0.08094269 0.092079096 0.07605491 0.040330164 0.06503511 -0.0063561844 0.007830057 0.034827925 0.08994418 -0.02680578 -0.03992276 0.07254622 0.08985355 0.055482265 0.015083545 0.0066305217 -5.183208E-4 -0.023436278 0.011756215 -0.02882121 -0.09396787 -0.019154437 0.07184828 -0.09275275 -0.024407355 0.08841561 -0.026269613 -0.05025863 0.011275645 -0.034883317 -0.013884564 -0.06958414 -0.028694294 -0.041409638 0.13898128 -0.07772573 -0.11076214 0.022610206 -0.04702621 0.0401558 0.015395289 0.0278472 -0.029543908 0.11665381 -0.0031436107 0.031207465 -0.04582447 0.10262597 0.0312966 -0.025319574 -0.019553665 -0.13221653 -0.14911099 -0.011608396 -0.07363294 0.013087854 -0.022901122 -0.2862915 0.12428751 -0.06637808 -0.10874132 -0.07080023 0.14985734 0.017165657 -0.086908504 0.060882453 0.024356125 0.05863164 0.009096088 -0.0028418356 -0.04690073 -0.016744822 -0.014404131 -0.09385 0.09848401 -0.045797374 -0.03309276 0.033701 -0.037617937 0.0131276995 0.06869367 -0.00226901 -0.017934602 0.015297617 -0.012766256 -0.05901294 0.07425003 -0.10790859 0.07250714 0.034989446 0.004393187 -0.02788801 0.08098242 0.002244276 0.04914434 0.039721537 0.0776172 -0.10173936 0.13173997 -0.08018748 0.026445813 -0.012852438 0.051406235 0.15565601 0.027736122 0.118514106 0.020238563 0.016401308 -0.025598098 0.10258205 0.030783286 -0.05822558 -0.077874154 -0.102608025 -0.039489113 0.01472936 -0.0026096578 0.038097236 0.07469943 0.005927962 0.0061221914 0.074457094 0.053883936 0.016327782 -3.5126193E-4 -0.05058342 -0.058104664 -0.01674465 -0.11996446 -0.05541569 -0.107740015 0.032024093 -0.03582841 0.038095985 0.011804656 -0.042015728 -0.02812447 0.111284174 -0.061322067 0.09653528 0.012410343 0.16868709 0.023144733 0.0034585888 0.20019813 -0.02428613 0.026821982 -0.112440534 -0.12529166 -0.034395084 -0.01726675 0.10873526 0.044240117 0.08186671 0.009251404 -0.0078154085 0.13603199 0.028318694 0.043382943 0.017268125 -0.054119017 0.0657716 -0.03505141 0.010569297 -0.0558133 0.03275985 -0.03969128 -0.10542633 -0.120013915 -0.099168345 -0.055860933 0.01256688 -0.007902625 0.0072725927 -0.052363295 0.006076014 -0.10569354 -0.07084019 -0.025911914 0.060542934 -0.035771273 0.051459447 -4.3157567E-4 0.027627703 -0.14991486 -0.0083413925 -0.0976976 -0.01582468 -0.014982125 0.03743233 -0.049119316 0.100056976 0.044082776 0.18199924 
2.2383347E-5 0.09821442 -2.3597351E-4 -0.10870649 0.11084587 0.0020858042 0.08160802 -0.0072527356 0.08663058 0.012450882 0.07457706 -0.03561374 -0.01826259 -0.0013716136 -2.5678542E-4 -2.4432832E-4 -2.5202736E-4 0.10992313 0.1936086 0.07546159 0.08125407 -0.10862623 0.32763538 -2.51981E-4 -0.112376474 0.14344041 0.108902335 -0.111176625 -0.10779744 4.379881E-4 0.12723811 -0.07474987 6.681531E-4 -0.0014174765 -0.007230307 -0.029700868 -0.06508253 -0.0036882234 -1.7835913E-4 0.044360746 -0.0011799565 0.0016955464 -0.0013749661 -9.1879227E-4 0.002343738 -0.04685139 0.06440233 0.04961947 0.006498313 0.081493184 0.02878429 0.081184976 -1.7307568E-4 -0.12384016 -0.124255486 -0.078914784 -5.8976846E-4 -0.003226702 0.013822161 -0.09749086 -4.5812054E-4 0.020713022 0.04236226 0.10994313 -0.093232065 0.07629484 0.081589304 -0.0031380095 -0.08104897 7.3814567E-4 -0.091468364 -0.022613965 0.115126 -0.001747976 0.0010061737 -6.572051E-4 0.0019106542 -1.8850653E-4 -0.028766777 -0.0813573 8.245734E-4 0.018667309 -3.3133937E-4 -0.002557704 -0.06451085 -0.09596278 0.004894906 1.574459E-4 -3.5188187E-4 -0.0033561443 -0.0076023117 0.2474631 -3.5127965E-4 -0.013492515 -0.017453061 8.0811087E-4 0.009962977 -3.6262607E-4 0.11449456 -2.1446438E-5 -0.00949562 -0.17574298 -0.25208992 -0.09269007 5.2509987E-4 -0.018973595 -0.08393974 -0.020377414 -0.004330849 -0.11776179 -0.10938785 0.058149982 -7.681992E-4 -0.13715674 0.0037149992 -0.002430603 0.041125614 0.06902114 7.058481E-4 4.0846612E-4 -0.08104308 -0.034637574 0.017855726 8.590672E-6 -0.02750778 -8.155695E-5 -5.2889454E-4 0.049132433 0.069700144 0.034570985 0.036254097 -0.079551645 0.029909909 8.11279E-4 7.2201923E-4 0.02941505 -0.04827341 5.5214384E-4 -0.029885445 8.829814E-4 -0.050335303 0.00663582 -7.61212E-5 -0.040699158 7.2502287E-4 -0.018212195 -4.7467975E-4 -0.0010142779 -0.0011035212 -6.832264E-4 0.10827415 -0.053402923 -0.018429825 0.19081086 -0.0010469786 -0.12135156 -0.093528785 7.1937434E-4 -6.4586326E-5 5.216902E-4 -0.07890085 -1.6953953E-4 -0.07971106 0.04830446 -7.740645E-4 -0.079516865 -0.02748494 -0.016560545 7.979501E-5 -0.04073311 -0.027868606 0.12333135 -0.0012966791 0.075471096 -8.728579E-4 0.17164709 0.11585041 0.040804774 2.3055869E-5 -9.714665E-4 0.048603714 -5.7798484E-4 -0.080564536 0.1078206 -0.048425775 6.559611E-4 4.76389E-4 -0.08097992 4.978015E-4 2.5295067E-4 -0.1788522 -0.07374975 -8.155866E-4 0.059463467 0.0019001695 0.019559182 4.6765726E-4 0.0041093216 -5.375675E-4 0.003946168 
-0.022712896 0.100271024 0.012441943 0.055416767 -0.035408683 -0.030887794 0.005199653 0.058641575 -0.05643474 0.083628766 -0.03455733 0.0063798414 -0.02271028 0.0011217004 -0.014464748 -0.07193131 -0.03891087 -0.01617385 0.04322482 -0.07684408 9.817388E-5 -0.06564288 -0.02488166 -0.11294428 -0.021611197 0.0010319878 0.041391913 -0.048776 -0.024526473 0.014488302 -0.08331711 0.005841238 0.04445896 -0.12604508 -0.018263614 -0.026810218 -0.03367585 -0.023894982 0.0012926057 -0.072613224 0.032966856 -0.06846377 0.062752426 -0.02675864 -0.13009381 -0.020431606 -0.031764776 0.02776522 -0.07132036 -0.07324019 -0.0072088814 -0.016684664 -0.05625995 0.12184102 -0.12379397 -1.16464624E-4 -0.03477997 -0.056028936 0.0466591 0.018416718 0.032545622 0.1110149 0.027558748 -0.0036681283 0.08982325 -0.03412608 0.15768388 -0.06854458 0.06869153 0.0286761 0.018267171 0.08742743 0.04943749 0.010370105 0.05464174 -5.593299E-4 -0.01146346 0.06536522 -0.06417739 -0.042478055 -0.19872363 -0.050945017 0.054932963 -0.14454232 0.059347257 -0.08935481 0.02106851 0.035425227 0.036754638 0.09238489 0.048671436 -0.046881735 -0.09199074 -0.14377593 0.19067073 -0.013723522 0.08891642 0.08321134 0.1952146 0.059249446 0.036303807 -6.198115E-5 -0.014597649 -0.2211415 -0.14046796 -0.06512442 -0.044215076 0.10936609 -0.02554965 0.10338277 -0.05640754 -0.045460887 0.017911604 -0.0063649565 -0.024236724 0.007956156 0.052605845 -0.0125708245 -0.02333394 0.12540992 -0.09742935 -0.006928186 -0.019451758 0.005862308 -0.015550823 -0.021197965 0.041915473 -0.030078841 0.07564312 0.022060797 0.034453876 -0.054548047 0.040493436 -0.058106583 -0.047988802 0.031648856 0.053242456 -0.036903333 0.04329469 0.011409575 -0.10483744 0.06228043 -0.010643324 0.046407055 -0.07442758 -0.013127321 0.020105608 0.16150077 0.0035085648 0.080328934 0.071446896 0.06709748 0.023815213 -0.06565391 0.0393793 0.030359695 -0.010680672 -0.028751481 -0.029573273 -0.03372144 0.023559922 0.009733983 0.1604988 -0.00737365 0.035096716 0.06841398 0.029366318 0.03872802 -0.010203499 0.0019288087 -0.010295936 -0.19054256 -0.059841383 -0.057086397 0.0058827265 0.073922694 0.0058308747 0.005027098 0.02616027 0.0032036896 0.06319261 -0.014780963 0.12356804 -0.013471325 0.024798956 -0.031214792 -0.17867106 -0.027635824 -0.17937818 -0.02385196 0.018315706 0.0076843128 0.05757141 0.15199198 -0.030642986 0.011272977 0.012094322 -0.077707194 -0.024630187 0.272686 
0.059747323 -0.019977886 0.13778733 -0.088117644 0.124196045 -0.053450394 0.05050065 0.021232164 0.056295156 -0.024380358 -0.002581273 -0.1315372 -0.07206819 -0.06916646 0.022768114 -0.08307999 -0.18576759 0.037203036 -0.1579788 0.06002106 0.08172353 -0.040692296 0.044066507 -0.02588638 0.028972453 -0.008345795 0.07304841 -0.016733505 0.13602853 0.057169326 0.06679991 0.07482811 -0.035596635 -0.03646934 0.044150494 -0.033400137 0.03010304 -0.0876058 0.16481833 -0.11279814 0.13373113 -0.07674286 0.0128827 0.06199758 0.046372313 -0.035878465 -0.03358817 -0.005038055 0.0010509305 -0.005711023 0.02334044 -0.02929053 -0.1054951 -0.025798414 -0.020513905 0.022292685 0.060374223 0.06312775 0.06364722 -0.02605191 -0.052250803 0.09446384 -0.024706287 0.032634158 0.037942745 0.011847056 -0.075353034 -0.011995038 0.012834395 0.0052315295 0.10896047 0.014858316 0.09422143 -0.026262617 -0.0019164446 0.04924012 -0.05985125 -0.17948268 -0.15205917 0.0014297554 -0.07875481 -0.058259547 -0.047768187 -0.10789903 -0.04793278 -0.05624476 -0.005109557 -0.0402583 -0.08891943 -0.017860448 -0.05141889 0.08319516 0.009370892 0.025117554 0.014547363 -0.10250815 0.04282756 -0.17665009 0.0129169645 -0.026046079 -0.11891506 -0.0023162893 -0.03900066 0.04204207 0.07212373 -0.020331306 0.03061239 0.032232538 -0.02510439 0.042438917 -0.04426602 -0.0065026935 -0.0715449 0.12091071 -0.069081925 -0.056265827 -0.042980723 0.1882222 -0.0068488712 0.14961903 0.028546283 0.0039435793 -0.017872905 0.06375254 0.1864144 0.024326585 0.10840337 0.047113445 -0.012955246 -0.003220589 -0.010113736 -0.04206669 0.026036572 0.018447319 -0.11108182 -0.108225614 -0.08373333 -0.0023127648 -0.0045762924 0.059262604 0.03135222 -0.008603189 -0.019179484 0.09332493 -0.018637782 0.033731885 0.028556723 0.05230565 0.020730065 0.043837644 -0.0413118 0.13804719 0.11927658 0.0066464776 -0.032442193 0.030901559 -0.0599827 0.07047299 -0.012212618 0.06020181 0.0016829248 -0.010145486 0.038616158 -0.0030966206 0.07604157 0.080410704 -0.02631052 0.066968285 0.13786463 -0.021971602 -0.032197047 -0.0154088065 -0.044982795 0.09749888 0.013789491 0.21353844 -0.07991816 -0.078089 -0.091697246 -0.0057008187 -0.015278522 0.08245342 -0.00310728 0.07559431 -0.09036055 -0.034099743 -0.022730058 -0.021777645 -0.098909475 -0.14612517 -0.036795214 0.04779755 -0.048415698 0.0014320301 -0.030687168 -0.027484559 -0.05840205 -0.14290875 -0.052766852 0.050869603 
0.014430081 0.011245404 0.004331429 0.009071606 -0.002040652 -0.008470259 -0.00815702 -0.0070061013 -0.0061948528 -0.009879818 -0.003205563 0.0045981403 0.015968053 0.006332095 0.023780163 -0.0042335973 0.008305883 -0.0046582986 0.0017048877 -0.01163859 -0.005357897 -0.0066602086 -0.003352174 0.014158417 -0.0038245048 0.01403119 -0.005365847 0.006844834 -0.020326864 0.006735746 -0.005597342 0.003082275 0.007917202 0.009096271 -0.009212727 0.008162199 8.7499886E-4 -0.0018826904 -0.0066097714 -0.004764397 -0.002519864 -0.23188584 0.00660312 -0.22415175 0.0060935365 -0.0068734707 -0.22012885 -0.0062401094 -0.22417249 -0.005365617 -0.017175991 0.005901813 -0.012550525 -0.0015146722 -0.006265341 -0.0017703782 -0.0054954914 0.004137129 0.0026860381 0.00339512 0.0022494632 0.0061264383 0.011580871 0.0013802735 -0.004484061 -0.0063190376 -0.0010288367 -0.0033318251 0.0023171594 -6.6216267E-4 0.22773564 0.021699319 0.22080801 -0.006990915 0.004090309 -0.007514498 0.0028176927 0.005447018 -0.2283584 -0.009103151 -0.22807519 0.0057694796 0.0052694282 0.002214699 -3.026941E-4 -0.006144855 0.010311956 -0.0036800301 0.011500904 -0.0125505505 -0.016271092 -0.008042053 -0.009748255 0.009074474 0.2267076 -0.002775418 0.22677831 -0.0030299705 0.0010545293 0.009784736 -0.0013720556 0.0021612148 -0.0059773466 -0.004427568 -0.005204437 -0.0069938023 0.0067179753 -0.006844919 0.0035165926 -0.005390294 0.0068231537 -0.0024280888 0.008580068 -0.0025216087 0.008794877 -0.012029315 0.004628689 -0.0052738315 -0.00945355 0.0059765116 -0.012961828 0.0017814649 -0.003973811 -0.0053064036 -0.0036768147 0.008323329 -0.0028700344 0.008832847 -0.22405884 -0.22239533 -0.2242823 -0.2207661 -0.0035824974 6.28347E-4 -0.004919368 -0.0015285363 0.0017184549 -0.003192412 9.672681E-4 0.0058686514 -0.0071402355 -0.011003559 -0.0034412611 0.004842621 0.007867866 0.003867777 0.22425541 -0.008026752 0.22115149 0.2168154 0.0067785624 0.22621103 -0.008524687 0.0031163448 -0.0025244877 0.0014196524 0.005434644 -0.00999799 0.0011563618 -2.6530385E-4 -6.6208624E-4 -7.516878E-5 0.20797683 0.006183065 0.19987549 0.0071218866 -2.077427E-5 0.0053958986 0.0029921345 -0.009931225 0.0017963497 0.001074149 0.005703596 8.906412E-4 0.01041024 6.0433984E-5 0.012202919 -0.0037879243 0.011392969 -0.009867995 -0.0052223024 -0.010367705 -0.0020137348 0.011694857 -0.012346117 0.00677619 5.416325E-5 -0.0060503203 0.008766854 0.0047609787 -0.0031626474 0.0031570594 0.011592951 0.0067564226 0.01953351 0.0020428398 0.015608163 -0.0042340485 0.0043314504 0.0024633121 
